name	datetime	Sweep_ID
dabest	2018-05-22 170329	SID05222018170329

Avg_Current_(A)	Avg_Current_(A)2	Unique_ID	Voltage_(V)
3.370524E-01	3.370524E-01	ID5222018170329	-5.000000E+00
6.906180E-01	6.906180E-01	ID5222018170330	-4.500000E+00
4.237364E-01	4.237364E-01	ID5222018170331	-4.000000E+00
4.838487E-01	4.838487E-01	ID5222018170332	-3.500000E+00
4.512715E-01	4.512715E-01	ID5222018170333	-3.000000E+00
5.094409E-01	5.094409E-01	ID5222018170334	-2.500000E+00
5.801808E-01	5.801808E-01	ID5222018170335	-2.000000E+00
4.928139E-01	4.928139E-01	ID5222018170336	-1.500000E+00
5.276196E-01	5.276196E-01	ID5222018170337	-1.000000E+00
4.262133E-01	4.262133E-01	ID5222018170338	-5.000000E-01
3.846076E-01	3.846076E-01	ID5222018170339	0.000000E+00
3.814342E-01	3.814342E-01	ID5222018170340	5.000000E-01
3.770329E-01	3.770329E-01	ID5222018170341	1.000000E+00
3.653873E-01	3.653873E-01	ID5222018170342	1.500000E+00
4.906103E-01	4.906103E-01	ID5222018170343	2.000000E+00
4.362448E-01	4.362448E-01	ID5222018170344	2.500000E+00
4.661485E-01	4.661485E-01	ID5222018170345	3.000000E+00
5.518200E-01	5.518200E-01	ID5222018170346	3.500000E+00
3.984361E-01	3.984361E-01	ID5222018170347	4.000000E+00
4.896279E-01	4.896279E-01	ID5222018170348	4.500000E+00


Time_(ms)	Current_(A)
0.000000E+00	4.583599E-01
1.111111E+02	3.120411E-01
2.222222E+02	2.811510E-01
3.333333E+02	1.654440E-01
4.444444E+02	5.589084E-01
5.555556E+02	4.838797E-01
6.666667E+02	2.158021E-01
7.777778E+02	5.616500E-01
8.888889E+02	1.969119E-01
1.000000E+03	1.363761E-01

Time_(ms)	Current_(A)
0.000000E+00	8.222516E-01
1.111111E+02	7.089973E-01
2.222222E+02	5.595866E-01
3.333333E+02	5.386372E-01
4.444444E+02	6.588690E-01
5.555556E+02	5.306645E-01
6.666667E+02	9.530149E-01
7.777778E+02	3.347761E-01
8.888889E+02	8.106844E-01
1.000000E+03	9.886984E-01

Time_(ms)	Current_(A)
0.000000E+00	5.786219E-01
1.111111E+02	2.665773E-01
2.222222E+02	2.724943E-01
3.333333E+02	7.039852E-02
4.444444E+02	2.450915E-01
5.555556E+02	7.420084E-01
6.666667E+02	5.791019E-01
7.777778E+02	4.619340E-01
8.888889E+02	1.119310E-01
1.000000E+03	9.092049E-01

Time_(ms)	Current_(A)
0.000000E+00	8.706187E-01
1.111111E+02	4.646608E-01
2.222222E+02	2.553039E-01
3.333333E+02	5.428552E-01
4.444444E+02	7.276487E-01
5.555556E+02	4.784132E-01
6.666667E+02	3.716947E-01
7.777778E+02	2.463616E-01
8.888889E+02	7.223082E-03
1.000000E+03	8.737069E-01

Time_(ms)	Current_(A)
0.000000E+00	3.496831E-01
1.111111E+02	2.116522E-01
2.222222E+02	3.945771E-01
3.333333E+02	7.565537E-02
4.444444E+02	7.543826E-01
5.555556E+02	9.064053E-01
6.666667E+02	5.885153E-01
7.777778E+02	3.568558E-01
8.888889E+02	4.458134E-01
1.000000E+03	4.291750E-01

Time_(ms)	Current_(A)
0.000000E+00	3.662269E-01
1.111111E+02	5.088792E-01
2.222222E+02	2.483478E-01
3.333333E+02	3.129937E-01
4.444444E+02	7.984167E-01
5.555556E+02	6.906182E-01
6.666667E+02	6.706284E-01
7.777778E+02	3.118956E-02
8.888889E+02	6.766375E-01
1.000000E+03	7.904708E-01

Time_(ms)	Current_(A)
0.000000E+00	7.810547E-01
1.111111E+02	1.829755E-01
2.222222E+02	2.169994E-01
3.333333E+02	8.423049E-01
4.444444E+02	5.764361E-01
5.555556E+02	8.467085E-01
6.666667E+02	2.350799E-01
7.777778E+02	7.747592E-01
8.888889E+02	7.940316E-01
1.000000E+03	5.514587E-01

Time_(ms)	Current_(A)
0.000000E+00	4.193770E-01
1.111111E+02	3.633101E-01
2.222222E+02	5.448210E-01
3.333333E+02	1.875225E-01
4.444444E+02	9.726566E-01
5.555556E+02	5.796467E-02
6.666667E+02	5.792165E-01
7.777778E+02	3.451244E-01
8.888889E+02	5.747185E-01
1.000000E+03	8.834274E-01

Time_(ms)	Current_(A)
0.000000E+00	4.669611E-01
1.111111E+02	3.457827E-01
2.222222E+02	4.244625E-01
3.333333E+02	7.446372E-01
4.444444E+02	7.680644E-01
5.555556E+02	7.534070E-01
6.666667E+02	4.580839E-01
7.777778E+02	1.362481E-01
8.888889E+02	8.071597E-01
1.000000E+03	3.713895E-01

Time_(ms)	Current_(A)
0.000000E+00	3.379931E-01
1.111111E+02	3.930661E-01
2.222222E+02	4.714582E-01
3.333333E+02	1.483050E-01
4.444444E+02	6.342573E-01
5.555556E+02	7.316477E-01
6.666667E+02	7.367959E-01
7.777778E+02	7.586871E-02
8.888889E+02	2.161654E-01
1.000000E+03	5.165761E-01

Time_(ms)	Current_(A)
0.000000E+00	7.871842E-01
1.111111E+02	2.674428E-01
2.222222E+02	5.072044E-01
3.333333E+02	4.168009E-01
4.444444E+02	1.630301E-01
5.555556E+02	4.468197E-01
6.666667E+02	5.750014E-02
7.777778E+02	3.259549E-01
8.888889E+02	5.212023E-01
1.000000E+03	3.529365E-01

Time_(ms)	Current_(A)
0.000000E+00	7.526702E-01
1.111111E+02	1.833566E-01
2.222222E+02	7.452463E-01
3.333333E+02	8.798568E-04
4.444444E+02	3.613774E-01
5.555556E+02	5.159774E-01
6.666667E+02	4.528348E-01
7.777778E+02	3.245856E-01
8.888889E+02	9.541369E-02
1.000000E+03	3.819996E-01

Time_(ms)	Current_(A)
0.000000E+00	5.296755E-01
1.111111E+02	2.701745E-02
2.222222E+02	2.263275E-01
3.333333E+02	8.802189E-01
4.444444E+02	4.313395E-01
5.555556E+02	4.854273E-01
6.666667E+02	1.498419E-01
7.777778E+02	6.788110E-01
8.888889E+02	2.826290E-01
1.000000E+03	7.904135E-02

Time_(ms)	Current_(A)
0.000000E+00	1.164172E-02
1.111111E+02	6.307110E-01
2.222222E+02	4.746178E-01
3.333333E+02	2.394445E-01
4.444444E+02	2.135911E-01
5.555556E+02	5.460065E-01
6.666667E+02	2.780625E-01
7.777778E+02	9.807111E-02
8.888889E+02	8.356108E-01
1.000000E+03	3.261155E-01

Time_(ms)	Current_(A)
0.000000E+00	2.367519E-01
1.111111E+02	6.597932E-03
2.222222E+02	3.410574E-01
3.333333E+02	9.843382E-01
4.444444E+02	2.047777E-01
5.555556E+02	7.175802E-01
6.666667E+02	4.403975E-01
7.777778E+02	6.102882E-01
8.888889E+02	4.929329E-01
1.000000E+03	8.713816E-01

Time_(ms)	Current_(A)
0.000000E+00	8.707190E-01
1.111111E+02	5.864382E-01
2.222222E+02	4.518469E-01
3.333333E+02	1.400399E-01
4.444444E+02	3.408579E-01
5.555556E+02	2.047261E-01
6.666667E+02	7.090068E-01
7.777778E+02	7.248557E-01
8.888889E+02	5.956123E-02
1.000000E+03	2.743960E-01

Time_(ms)	Current_(A)
0.000000E+00	3.901491E-01
1.111111E+02	1.044403E-01
2.222222E+02	5.159149E-01
3.333333E+02	2.280003E-01
4.444444E+02	6.864061E-01
5.555556E+02	5.703148E-01
6.666667E+02	3.310072E-01
7.777778E+02	1.575407E-01
8.888889E+02	8.387046E-01
1.000000E+03	8.390068E-01

Time_(ms)	Current_(A)
0.000000E+00	7.642489E-01
1.111111E+02	6.129102E-01
2.222222E+02	8.564018E-01
3.333333E+02	7.042990E-01
4.444444E+02	8.651940E-01
5.555556E+02	7.756871E-03
6.666667E+02	4.797831E-01
7.777778E+02	2.970931E-01
8.888889E+02	7.943587E-01
1.000000E+03	1.361542E-01

Time_(ms)	Current_(A)
0.000000E+00	2.007455E-01
1.111111E+02	3.610417E-01
2.222222E+02	4.132825E-01
3.333333E+02	9.012538E-01
4.444444E+02	7.944850E-02
5.555556E+02	1.993643E-01
6.666667E+02	8.303824E-01
7.777778E+02	7.816426E-02
8.888889E+02	6.251030E-02
1.000000E+03	8.581683E-01

Time_(ms)	Current_(A)
0.000000E+00	6.176631E-01
1.111111E+02	6.312705E-01
2.222222E+02	1.474666E-01
3.333333E+02	5.767935E-01
4.444444E+02	8.993394E-01
5.555556E+02	1.874023E-01
6.666667E+02	6.044864E-01
7.777778E+02	2.883646E-01
8.888889E+02	6.740432E-01
1.000000E+03	2.694495E-01


